…
During the model-building phase, setting the `info = TRUE` argument can be helpful. This returns the result of the `prepare()` function, providing details on the classification of all variables (endogenous/exogenous) and other summary information about the input data.  

Simulation results are saved in a `$result` tibble linked to the scenario being simulated (e.g., the baseline scenario is stored as `$baseline`).

``` r
model_sim <- model_sim |>
  simulate_scenario(
    periods = 100, start_date = "2015-01-01",
    method = "Gauss", max_iter = 350, tol = 1e-05
  )

model_sim$baseline$result

## # A tibble: 100 × 17
##    time         C_s   G_s   T_s   N_s    Yd   T_d   C_d   H_s   H_h     Y   N_d
##    <date>     <dbl> <dbl> <dbl> <dbl> <dbl> <dbl> <dbl> <dbl> <dbl> <dbl> <dbl>
##  1 2015-01-01   0       0  0      0     0    0      0     0     0     0     0  
##  2 2015-04-01  18.5    20  7.69  38.5  30.8  7.69  18.5  12.3  12.3  38.5  38.5
##  3 2015-07-01  27.9    20  9.59  47.9  38.3  9.59  27.9  22.7  22.7  47.9  47.9
##  4 2015-10-01  35.9    20 11.2   55.9  44.8 11.2   35.9  31.5  31.5  55.9  55.9
##  5 2016-01-01  42.7    20 12.5   62.7  50.2 12.5   42.7  39.0  39.0  62.7  62.7
##  6 2016-04-01  48.5    20 13.7   68.5  54.8 13.7   48.5  45.3  45.3  68.5  68.5
##  7 2016-07-01  53.3    20 14.7   73.3  58.6 14.7   53.3  50.6  50.6  73.3  73.3
##  8 2016-10-01  57.4    20 15.5   77.4  61.9 15.5   57.4  55.2  55.2  77.4  77.4
##  9 2017-01-01  60.9    20 16.2   80.9  64.7 16.2   60.9  59.0  59.0  80.9  80.9
## 10 2017-04-01  63.8    20 16.8   83.8  67.1 16.8   63.8  62.2  62.2  83.8  83.8
## # … with 90 more rows, and 5 more variables: alpha1 <dbl>, alpha2 <dbl>,
## #   theta <dbl>, G_d <dbl>, W <dbl>
```
…
Once the shock has been defined, it can be incorporated into a new scenario using `add_scenario()`. The baseline scenario and corresponding time periods must first be specified. After establishing the shock scenario, the `simulate_scenario()` function can be executed again to generate the updated results.  

``` r
model_sim <- model_sim |>
  add_scenario(
    name = "expansion", origin = "baseline",
    origin_start = "2015-01-01", origin_end = "2023-10-01",
    shock = sim_shock
  ) |>
  simulate_scenario(periods = 100)

model_sim$expansion$result

## # A tibble: 100 × 17
##    time         C_s   G_s   T_s   N_s    Yd   T_d   C_d   H_s   H_h     Y   N_d
##    <date>     <dbl> <dbl> <dbl> <dbl> <dbl> <dbl> <dbl> <dbl> <dbl> <dbl> <dbl>
##  1 2015-01-01   0       0  0      0     0    0      0     0     0     0     0  
##  2 2015-04-01  18.5    20  7.69  38.5  30.8  7.69  18.5  12.3  12.3  38.5  38.5
##  3 2015-07-01  27.9    20  9.59  47.9  38.3  9.59  27.9  22.7  22.7  47.9  47.9
##  4 2015-10-01  35.9    20 11.2   55.9  44.8 11.2   35.9  31.5  31.5  55.9  55.9
##  5 2016-01-01  42.7    20 12.5   62.7  50.2 12.5   42.7  39.0  39.0  62.7  62.7
##  6 2016-04-01  48.5    20 13.7   68.5  54.8 13.7   48.5  45.3  45.3  68.5  68.5
##  7 2016-07-01  53.3    20 14.7   73.3  58.6 14.7   53.3  50.6  50.6  73.3  73.3
##  8 2016-10-01  57.4    20 15.5   77.4  61.9 15.5   57.4  55.2  55.2  77.4  77.4
##  9 2017-01-01  64.6    24 17.7   88.6  70.9 17.7   64.6  61.4  61.4  88.6  88.6
## 10 2017-04-01  69.4    24 18.7   93.4  74.7 18.7   69.4  66.8  66.8  93.4  93.4
## # … with 90 more rows, and 5 more variables: alpha1 <dbl>, alpha2 <dbl>,
## #   theta <dbl>, G_d <dbl>, W <dbl>
```
…
