Stock-Flow-Consistent Model Simulator • godley
…
With all variables and equations defined, it’s about time to run some simulations using the simulate_scenario() function. You can choose simulation method (Newton or Gauss) and number of periods (think quarters or years). Results will be stored in a $result tibble under a $baseline scenario.

model_sim <- simulate_scenario(model = model_sim, scenario = "baseline", max_iter = 350, 
                               periods = 100, hidden_tol = 0.1, tol = 1e-08, method = "Newton")

model_sim$baseline$result

## # A tibble: 100 x 16
##      C_s   G_s   T_s   N_s    Yd   T_d   C_d   H_s   H_h     Y   N_d alpha1
##    <dbl> <dbl> <dbl> <dbl> <dbl> <dbl> <dbl> <dbl> <dbl> <dbl> <dbl>  <dbl>
##  1   0       0  0      0     0    0      0     0     0     0     0      0.5
##  2  13.3    20  6.67  33.3  26.7  6.67  13.3  13.3  13.3  33.3  33.3    0.5
##  3  22.2    20  8.44  42.2  33.8  8.44  22.2  24.9  24.9  42.2  42.2    0.5
##  4  29.9    20  9.99  49.9  39.9  9.99  29.9  34.9  34.9  49.9  49.9    0.5
##  5  36.6    20 11.3   56.6  45.3 11.3   36.6  43.6  43.6  56.6  56.6    0.5
##  6  42.4    20 12.5   62.4  49.9 12.5   42.4  51.1  51.1  62.4  62.4    0.5
##  7  47.4    20 13.5   67.4  53.9 13.5   47.4  57.6  57.6  67.4  67.4    0.5
##  8  51.7    20 14.3   71.7  57.4 14.3   51.7  63.3  63.3  71.7  71.7    0.5
##  9  55.5    20 15.1   75.5  60.4 15.1   55.5  68.2  68.2  75.5  75.5    0.5
## 10  58.8    20 15.8   78.8  63.0 15.8   58.8  72.4  72.4  78.8  78.8    0.5
## # ... with 90 more rows, and 4 more variables: alpha2 <dbl>, theta <dbl>,
## #   G_d <dbl>, W <dbl>
…
With everything defined, let’s add a new scenario using the add_scenario() function. But first we need to instruct godley which scenario we will use as a starting point (and which period).

model_sim <- add_scenario(model = model_sim, name = "expansion", origin = "baseline", 
                          origin_period = 100, shock = sim_shock)

After a shock scenario is created we can simulate it using the now familiar simulate_scenario() function.

model_sim <- simulate_scenario(model = model_sim, max_iter = 350, periods = 100, 
                               hidden_tol = 0.1, tol = 1e-08, method = "Newton")

model_sim$expansion$result

## # A tibble: 100 x 16
##      C_s   G_s   T_s   N_s    Yd   T_d   C_d   H_s   H_h     Y   N_d alpha1
##    <dbl> <dbl> <dbl> <dbl> <dbl> <dbl> <dbl> <dbl> <dbl> <dbl> <dbl>  <dbl>
##  1   0       0  0      0     0    0      0     0     0     0     0      0.5
##  2  13.3    20  6.67  33.3  26.7  6.67  13.3  13.3  13.3  33.3  33.3    0.5
##  3  22.2    20  8.44  42.2  33.8  8.44  22.2  24.9  24.9  42.2  42.2    0.5
##  4  29.9    20  9.99  49.9  39.9  9.99  29.9  34.9  34.9  49.9  49.9    0.5
##  5  39.9    25 13.0   64.9  51.9 13.0   39.9  46.9  46.9  64.9  64.9    0.5
##  6  47.9    25 14.6   72.9  58.4 14.6   47.9  57.3  57.3  72.9  72.9    0.5
##  7  54.9    25 16.0   79.9  63.9 16.0   54.9  66.4  66.4  79.9  79.9    0.5
##  8  60.9    25 17.2   85.9  68.7 17.2   60.9  74.2  74.2  85.9  85.9    0.5
##  9  66.1    25 18.2   91.1  72.9 18.2   66.1  80.9  80.9  91.1  91.1    0.5
## 10  70.6    25 19.1   95.6  76.5 19.1   70.6  86.8  86.8  95.6  95.6    0.5
## # ... with 90 more rows, and 4 more variables: alpha2 <dbl>, theta <dbl>,
## #   G_d <dbl>, W <dbl>
…
